found: dceebdbeccdbbecdbdcceebdbeccddbbecdcebbdcceebddcebec 52 644
 2 8 5 7 6 0 3 1 4
 2 8 0 7 6 5 3 1 4
 2 0 8 7 6 5 3 1 4
 0 2 8 7 6 5 3 1 4
 7 2 8 0 6 5 3 1 4
 7 2 8 6 0 5 3 1 4
 7 2 8 6 1 5 3 0 4
 7 2 8 6 1 5 0 3 4
 7 2 8 0 1 5 6 3 4
 0 2 8 7 1 5 6 3 4
 2 0 8 7 1 5 6 3 4
 2 1 8 7 0 5 6 3 4
 2 1 8 7 3 5 6 0 4
 2 1 8 7 3 5 0 6 4
 2 1 8 0 3 5 7 6 4
 2 1 8 3 0 5 7 6 4
 2 1 8 3 6 5 7 0 4
 2 1 8 3 6 5 7 4 0
 2 1 8 3 6 0 7 4 5
 2 1 0 3 6 8 7 4 5
 2 0 1 3 6 8 7 4 5
 0 2 1 3 6 8 7 4 5
 3 2 1 0 6 8 7 4 5
 3 2 1 6 0 8 7 4 5
 3 2 1 6 4 8 7 0 5
 3 2 1 6 4 8 0 7 5
 3 2 1 0 4 8 6 7 5
 0 2 1 3 4 8 6 7 5
 2 0 1 3 4 8 6 7 5
 2 1 0 3 4 8 6 7 5
 2 1 8 3 4 0 6 7 5
 2 1 8 3 4 5 6 7 0
 2 1 8 3 4 5 6 0 7
 2 1 8 3 0 5 6 4 7
 2 1 8 3 5 0 6 4 7
 2 1 0 3 5 8 6 4 7
 2 0 1 3 5 8 6 4 7
 2 5 1 3 0 8 6 4 7
 2 5 1 3 4 8 6 0 7
 2 5 1 3 4 8 6 7 0
 2 5 1 3 4 0 6 7 8
 2 5 0 3 4 1 6 7 8
 2 0 5 3 4 1 6 7 8
 0 2 5 3 4 1 6 7 8
 3 2 5 0 4 1 6 7 8
 3 2 5 4 0 1 6 7 8
 3 2 5 4 1 0 6 7 8
 3 2 0 4 1 5 6 7 8
 3 0 2 4 1 5 6 7 8
 3 1 2 4 0 5 6 7 8
 3 1 2 0 4 5 6 7 8
 0 1 2 3 4 5 6 7 8
