found: cebdbeccddbbeccdbbeccebbdcdbececdbbecdcebddceebdcdbeec 54 390
 1 0 7 6 3 8 5 4 2
 0 1 7 6 3 8 5 4 2
 6 1 7 0 3 8 5 4 2
 6 1 7 3 0 8 5 4 2
 6 1 7 3 4 8 5 0 2
 6 1 7 3 4 8 0 5 2
 6 1 7 0 4 8 3 5 2
 0 1 7 6 4 8 3 5 2
 1 0 7 6 4 8 3 5 2
 1 7 0 6 4 8 3 5 2
 1 7 8 6 4 0 3 5 2
 1 7 8 6 4 2 3 5 0
 1 7 8 6 4 2 3 0 5
 1 7 8 6 0 2 3 4 5
 1 0 8 6 7 2 3 4 5
 1 8 0 6 7 2 3 4 5
 1 8 2 6 7 0 3 4 5
 1 8 2 6 7 5 3 4 0
 1 8 2 6 7 5 3 0 4
 1 8 2 6 0 5 3 7 4
 1 0 2 6 8 5 3 7 4
 0 1 2 6 8 5 3 7 4
 6 1 2 0 8 5 3 7 4
 6 1 2 3 8 5 0 7 4
 6 1 2 3 8 5 7 0 4
 6 1 2 3 0 5 7 8 4
 6 1 2 3 5 0 7 8 4
 6 1 2 3 5 4 7 8 0
 6 1 2 3 5 4 7 0 8
 6 1 2 3 0 4 7 5 8
 6 1 2 0 3 4 7 5 8
 0 1 2 6 3 4 7 5 8
 1 0 2 6 3 4 7 5 8
 1 3 2 6 0 4 7 5 8
 1 3 2 6 5 4 7 0 8
 1 3 2 6 5 4 0 7 8
 1 3 2 0 5 4 6 7 8
 1 3 2 5 0 4 6 7 8
 1 0 2 5 3 4 6 7 8
 0 1 2 5 3 4 6 7 8
 5 1 2 0 3 4 6 7 8
 5 1 2 3 0 4 6 7 8
 5 1 2 3 4 0 6 7 8
 5 1 0 3 4 2 6 7 8
 5 0 1 3 4 2 6 7 8
 0 5 1 3 4 2 6 7 8
 3 5 1 0 4 2 6 7 8
 3 5 1 4 0 2 6 7 8
 3 0 1 4 5 2 6 7 8
 3 1 0 4 5 2 6 7 8
 3 1 2 4 5 0 6 7 8
 3 1 2 4 0 5 6 7 8
 3 1 2 0 4 5 6 7 8
 0 1 2 3 4 5 6 7 8
