found: ecdbbdccebbeccdbebdcdbeeccdbebdccebdbecc 40 131
 3 8 6 0 2 5 7 4 1
 0 8 6 3 2 5 7 4 1
 8 0 6 3 2 5 7 4 1
 8 2 6 3 0 5 7 4 1
 8 2 6 3 4 5 7 0 1
 8 2 6 3 4 5 7 1 0
 8 2 6 3 4 0 7 1 5
 8 2 0 3 4 6 7 1 5
 8 0 2 3 4 6 7 1 5
 8 4 2 3 0 6 7 1 5
 8 4 2 3 1 6 7 0 5
 8 4 2 3 1 6 0 7 5
 8 4 2 0 1 6 3 7 5
 0 4 2 8 1 6 3 7 5
 4 0 2 8 1 6 3 7 5
 4 1 2 8 0 6 3 7 5
 4 1 2 0 8 6 3 7 5
 4 1 2 3 8 6 0 7 5
 4 1 2 3 8 6 7 0 5
 4 1 2 3 0 6 7 8 5
 4 1 2 3 6 0 7 8 5
 4 1 2 3 6 5 7 8 0
 4 1 2 3 6 5 7 0 8
 4 1 2 3 6 5 0 7 8
 4 1 2 0 6 5 3 7 8
 0 1 2 4 6 5 3 7 8
 1 0 2 4 6 5 3 7 8
 1 6 2 4 0 5 3 7 8
 1 6 2 0 4 5 3 7 8
 1 6 2 3 4 5 0 7 8
 1 6 2 3 4 5 7 0 8
 1 6 2 3 0 5 7 4 8
 1 0 2 3 6 5 7 4 8
 0 1 2 3 6 5 7 4 8
 3 1 2 0 6 5 7 4 8
 3 1 2 6 0 5 7 4 8
 3 1 2 6 4 5 7 0 8
 3 1 2 6 4 5 0 7 8
 3 1 2 0 4 5 6 7 8
 0 1 2 3 4 5 6 7 8
