found: ccdcebebdccebdbbdcebecdcddbecdceebddceeebddcebddcebbbdceceebbddceecdbdceecdddbebdbecdcebbdccecebbddcebecce 106 40093
 3 2 6 1 9 15 4 14 7 0 10 5 12 11 8 13
 3 2 6 1 9 0 4 14 7 15 10 5 12 11 8 13
 3 2 6 1 9 4 0 14 7 15 10 5 12 11 8 13
 3 2 0 1 9 4 6 14 7 15 10 5 12 11 8 13
 3 0 2 1 9 4 6 14 7 15 10 5 12 11 8 13
 3 4 2 1 9 0 6 14 7 15 10 5 12 11 8 13
 3 4 2 1 0 9 6 14 7 15 10 5 12 11 8 13
 3 4 2 1 7 9 6 14 0 15 10 5 12 11 8 13
 3 4 2 1 7 9 6 14 15 0 10 5 12 11 8 13
 3 4 2 1 7 0 6 14 15 9 10 5 12 11 8 13
 3 0 2 1 7 4 6 14 15 9 10 5 12 11 8 13
 0 3 2 1 7 4 6 14 15 9 10 5 12 11 8 13
 7 3 2 1 0 4 6 14 15 9 10 5 12 11 8 13
 7 3 2 1 4 0 6 14 15 9 10 5 12 11 8 13
 7 3 2 1 4 9 6 14 15 0 10 5 12 11 8 13
 7 3 2 1 4 9 6 14 15 11 10 5 12 0 8 13
 7 3 2 1 4 9 6 14 15 11 10 5 12 8 0 13
 7 3 2 1 4 9 6 14 15 11 0 5 12 8 10 13
 7 3 2 1 4 9 6 14 15 0 11 5 12 8 10 13
 7 3 2 1 4 9 6 14 15 8 11 5 12 0 10 13
 7 3 2 1 4 9 6 14 15 8 11 5 0 12 10 13
 7 3 2 1 4 9 6 14 0 8 11 5 15 12 10 13
 7 3 2 1 4 9 6 14 8 0 11 5 15 12 10 13
 7 3 2 1 4 0 6 14 8 9 11 5 15 12 10 13
 7 3 2 1 4 6 0 14 8 9 11 5 15 12 10 13
 7 3 2 1 4 6 14 0 8 9 11 5 15 12 10 13
 7 3 2 1 4 6 14 5 8 9 11 0 15 12 10 13
 7 3 2 1 4 6 14 5 8 9 0 11 15 12 10 13
 7 3 2 1 4 6 0 5 8 9 14 11 15 12 10 13
 7 3 2 1 4 6 5 0 8 9 14 11 15 12 10 13
 7 3 2 0 4 6 5 1 8 9 14 11 15 12 10 13
 7 3 0 2 4 6 5 1 8 9 14 11 15 12 10 13
 7 0 3 2 4 6 5 1 8 9 14 11 15 12 10 13
 7 6 3 2 4 0 5 1 8 9 14 11 15 12 10 13
 7 6 3 2 4 5 0 1 8 9 14 11 15 12 10 13
 7 6 3 2 4 5 1 0 8 9 14 11 15 12 10 13
 7 6 3 0 4 5 1 2 8 9 14 11 15 12 10 13
 7 6 0 3 4 5 1 2 8 9 14 11 15 12 10 13
 7 0 6 3 4 5 1 2 8 9 14 11 15 12 10 13
 0 7 6 3 4 5 1 2 8 9 14 11 15 12 10 13
 4 7 6 3 0 5 1 2 8 9 14 11 15 12 10 13
 4 7 6 3 5 0 1 2 8 9 14 11 15 12 10 13
 4 7 6 3 5 1 0 2 8 9 14 11 15 12 10 13
 4 7 0 3 5 1 6 2 8 9 14 11 15 12 10 13
 4 0 7 3 5 1 6 2 8 9 14 11 15 12 10 13
 4 1 7 3 5 0 6 2 8 9 14 11 15 12 10 13
 4 1 7 3 5 6 0 2 8 9 14 11 15 12 10 13
 4 1 7 3 5 6 2 0 8 9 14 11 15 12 10 13
 4 1 7 0 5 6 2 3 8 9 14 11 15 12 10 13
 4 1 0 7 5 6 2 3 8 9 14 11 15 12 10 13
 4 1 2 7 5 6 0 3 8 9 14 11 15 12 10 13
 4 1 2 7 5 6 14 3 8 9 0 11 15 12 10 13
 4 1 2 7 5 6 14 3 8 9 10 11 15 12 0 13
 4 1 2 7 5 6 14 3 8 9 10 11 15 12 13 0
 4 1 2 7 5 6 14 3 8 9 10 0 15 12 13 11
 4 1 2 7 5 6 14 3 8 9 0 10 15 12 13 11
 4 1 2 7 5 6 0 3 8 9 14 10 15 12 13 11
 4 1 2 7 5 0 6 3 8 9 14 10 15 12 13 11
 4 1 2 7 0 5 6 3 8 9 14 10 15 12 13 11
 4 1 2 7 8 5 6 3 0 9 14 10 15 12 13 11
 4 1 2 7 8 5 6 3 15 9 14 10 0 12 13 11
 4 1 2 7 8 5 6 3 15 9 14 10 12 0 13 11
 4 1 2 7 8 5 6 3 15 9 14 10 12 13 0 11
 4 1 2 7 8 5 6 3 15 9 0 10 12 13 14 11
 4 1 2 7 8 5 6 3 15 0 9 10 12 13 14 11
 4 1 2 7 8 5 6 3 0 15 9 10 12 13 14 11
 4 1 2 7 0 5 6 3 8 15 9 10 12 13 14 11
 4 1 2 7 5 0 6 3 8 15 9 10 12 13 14 11
 4 1 2 7 5 15 6 3 8 0 9 10 12 13 14 11
 4 1 2 7 5 15 6 3 8 9 0 10 12 13 14 11
 4 1 2 7 5 15 0 3 8 9 6 10 12 13 14 11
 4 1 2 7 5 0 15 3 8 9 6 10 12 13 14 11
 4 1 2 7 0 5 15 3 8 9 6 10 12 13 14 11
 0 1 2 7 4 5 15 3 8 9 6 10 12 13 14 11
 1 0 2 7 4 5 15 3 8 9 6 10 12 13 14 11
 1 2 0 7 4 5 15 3 8 9 6 10 12 13 14 11
 1 2 7 0 4 5 15 3 8 9 6 10 12 13 14 11
 1 2 7 3 4 5 15 0 8 9 6 10 12 13 14 11
 1 2 7 3 4 5 0 15 8 9 6 10 12 13 14 11
 1 2 7 3 4 5 6 15 8 9 0 10 12 13 14 11
 1 2 7 3 4 5 6 15 8 9 10 0 12 13 14 11
 1 2 7 3 4 5 6 15 8 9 10 11 12 13 14 0
 1 2 7 3 4 5 6 15 8 9 10 11 12 13 0 14
 1 2 7 3 4 5 6 15 8 9 0 11 12 13 10 14
 1 2 7 3 4 5 6 15 8 9 11 0 12 13 10 14
 1 2 7 3 4 5 6 0 8 9 11 15 12 13 10 14
 1 2 7 3 4 5 0 6 8 9 11 15 12 13 10 14
 1 2 7 3 4 5 11 6 8 9 0 15 12 13 10 14
 1 2 7 3 4 5 11 6 8 9 10 15 12 13 0 14
 1 2 7 3 4 5 11 6 8 9 10 15 12 13 14 0
 1 2 7 3 4 5 11 6 8 9 10 0 12 13 14 15
 1 2 7 3 4 5 11 0 8 9 10 6 12 13 14 15
 1 2 7 3 4 5 0 11 8 9 10 6 12 13 14 15
 1 2 0 3 4 5 7 11 8 9 10 6 12 13 14 15
 1 0 2 3 4 5 7 11 8 9 10 6 12 13 14 15
 1 5 2 3 4 0 7 11 8 9 10 6 12 13 14 15
 1 5 2 3 4 9 7 11 8 0 10 6 12 13 14 15
 1 5 2 3 4 9 7 11 8 10 0 6 12 13 14 15
 1 5 2 3 4 9 7 11 8 10 6 0 12 13 14 15
 1 5 2 3 4 9 7 0 8 10 6 11 12 13 14 15
 1 5 2 3 4 9 0 7 8 10 6 11 12 13 14 15
 1 5 2 3 4 9 6 7 8 10 0 11 12 13 14 15
 1 5 2 3 4 9 6 7 8 0 10 11 12 13 14 15
 1 5 2 3 4 0 6 7 8 9 10 11 12 13 14 15
 1 0 2 3 4 5 6 7 8 9 10 11 12 13 14 15
 0 1 2 3 4 5 6 7 8 9 10 11 12 13 14 15
