found: cdddcebdceeebddceebdbdcebbeccdbbecccdbecdbbecdcebbbddccdbbecccdbbeececddbecdbebdccebddcebecddbeecebddcebecddbebbecdcebbdcecdbbecccdbebdccebdbecc 144 3046
 2 15 11 8 0 7 5 10 13 14 9 3 4 1 12 6
 2 15 11 8 7 0 5 10 13 14 9 3 4 1 12 6
 2 15 11 8 7 5 0 10 13 14 9 3 4 1 12 6
 2 15 11 8 7 5 10 0 13 14 9 3 4 1 12 6
 2 15 11 0 7 5 10 8 13 14 9 3 4 1 12 6
 2 15 0 11 7 5 10 8 13 14 9 3 4 1 12 6
 2 15 10 11 7 5 0 8 13 14 9 3 4 1 12 6
 2 15 10 11 7 5 8 0 13 14 9 3 4 1 12 6
 2 15 10 0 7 5 8 11 13 14 9 3 4 1 12 6
 2 15 0 10 7 5 8 11 13 14 9 3 4 1 12 6
 2 0 15 10 7 5 8 11 13 14 9 3 4 1 12 6
 0 2 15 10 7 5 8 11 13 14 9 3 4 1 12 6
 7 2 15 10 0 5 8 11 13 14 9 3 4 1 12 6
 7 2 15 10 5 0 8 11 13 14 9 3 4 1 12 6
 7 2 15 10 5 8 0 11 13 14 9 3 4 1 12 6
 7 2 0 10 5 8 15 11 13 14 9 3 4 1 12 6
 7 0 2 10 5 8 15 11 13 14 9 3 4 1 12 6
 0 7 2 10 5 8 15 11 13 14 9 3 4 1 12 6
 5 7 2 10 0 8 15 11 13 14 9 3 4 1 12 6
 5 7 2 10 8 0 15 11 13 14 9 3 4 1 12 6
 5 7 2 10 8 14 15 11 13 0 9 3 4 1 12 6
 5 7 2 10 8 14 15 11 13 9 0 3 4 1 12 6
 5 7 2 10 8 14 0 11 13 9 15 3 4 1 12 6
 5 7 2 10 8 0 14 11 13 9 15 3 4 1 12 6
 5 7 2 10 8 9 14 11 13 0 15 3 4 1 12 6
 5 7 2 10 8 9 14 11 13 1 15 3 4 0 12 6
 5 7 2 10 8 9 14 11 13 1 15 3 0 4 12 6
 5 7 2 10 8 9 14 11 0 1 15 3 13 4 12 6
 5 7 2 10 0 9 14 11 8 1 15 3 13 4 12 6
 5 7 2 10 9 0 14 11 8 1 15 3 13 4 12 6
 5 7 2 10 9 1 14 11 8 0 15 3 13 4 12 6
 5 7 2 10 9 1 14 11 8 4 15 3 13 0 12 6
 5 7 2 10 9 1 14 11 8 4 15 3 0 13 12 6
 5 7 2 10 9 1 14 11 0 4 15 3 8 13 12 6
 5 7 2 10 0 1 14 11 9 4 15 3 8 13 12 6
 0 7 2 10 5 1 14 11 9 4 15 3 8 13 12 6
 7 0 2 10 5 1 14 11 9 4 15 3 8 13 12 6
 7 1 2 10 5 0 14 11 9 4 15 3 8 13 12 6
 7 1 2 10 0 5 14 11 9 4 15 3 8 13 12 6
 0 1 2 10 7 5 14 11 9 4 15 3 8 13 12 6
 1 0 2 10 7 5 14 11 9 4 15 3 8 13 12 6
 1 5 2 10 7 0 14 11 9 4 15 3 8 13 12 6
 1 5 2 10 7 4 14 11 9 0 15 3 8 13 12 6
 1 5 2 10 7 4 14 11 0 9 15 3 8 13 12 6
 1 5 2 10 0 4 14 11 7 9 15 3 8 13 12 6
 1 5 2 10 4 0 14 11 7 9 15 3 8 13 12 6
 1 0 2 10 4 5 14 11 7 9 15 3 8 13 12 6
 0 1 2 10 4 5 14 11 7 9 15 3 8 13 12 6
 4 1 2 10 0 5 14 11 7 9 15 3 8 13 12 6
 4 1 2 10 7 5 14 11 0 9 15 3 8 13 12 6
 4 1 2 10 7 5 14 11 8 9 15 3 0 13 12 6
 4 1 2 10 7 5 14 11 8 9 15 3 13 0 12 6
 4 1 2 10 7 5 14 11 8 9 15 3 13 12 0 6
 4 1 2 10 7 5 14 11 8 9 0 3 13 12 15 6
 4 1 2 10 7 5 0 11 8 9 14 3 13 12 15 6
 4 1 2 10 7 5 11 0 8 9 14 3 13 12 15 6
 4 1 2 10 7 5 11 3 8 9 14 0 13 12 15 6
 4 1 2 10 7 5 11 3 8 9 14 6 13 12 15 0
 4 1 2 10 7 5 11 3 8 9 14 6 13 12 0 15
 4 1 2 10 7 5 11 3 8 9 0 6 13 12 14 15
 4 1 2 10 7 5 0 3 8 9 11 6 13 12 14 15
 4 1 0 10 7 5 2 3 8 9 11 6 13 12 14 15
 4 1 10 0 7 5 2 3 8 9 11 6 13 12 14 15
 4 1 10 3 7 5 2 0 8 9 11 6 13 12 14 15
 4 1 10 3 7 5 2 6 8 9 11 0 13 12 14 15
 4 1 10 3 7 5 2 6 8 9 0 11 13 12 14 15
 4 1 10 3 7 5 2 6 8 0 9 11 13 12 14 15
 4 1 10 3 7 0 2 6 8 5 9 11 13 12 14 15
 4 1 10 3 0 7 2 6 8 5 9 11 13 12 14 15
 0 1 10 3 4 7 2 6 8 5 9 11 13 12 14 15
 1 0 10 3 4 7 2 6 8 5 9 11 13 12 14 15
 1 10 0 3 4 7 2 6 8 5 9 11 13 12 14 15
 1 10 2 3 4 7 0 6 8 5 9 11 13 12 14 15
 1 10 2 3 4 0 7 6 8 5 9 11 13 12 14 15
 1 0 2 3 4 10 7 6 8 5 9 11 13 12 14 15
 1 2 0 3 4 10 7 6 8 5 9 11 13 12 14 15
 1 2 7 3 4 10 0 6 8 5 9 11 13 12 14 15
 1 2 7 3 4 0 10 6 8 5 9 11 13 12 14 15
 1 2 7 3 4 5 10 6 8 0 9 11 13 12 14 15
 1 2 7 3 4 5 10 6 8 9 0 11 13 12 14 15
 1 2 7 3 4 5 0 6 8 9 10 11 13 12 14 15
 1 2 0 3 4 5 7 6 8 9 10 11 13 12 14 15
 1 0 2 3 4 5 7 6 8 9 10 11 13 12 14 15
 1 5 2 3 4 0 7 6 8 9 10 11 13 12 14 15
 1 5 2 3 4 7 0 6 8 9 10 11 13 12 14 15
 1 5 2 3 4 7 6 0 8 9 10 11 13 12 14 15
 1 5 2 0 4 7 6 3 8 9 10 11 13 12 14 15
 1 5 0 2 4 7 6 3 8 9 10 11 13 12 14 15
 1 5 6 2 4 7 0 3 8 9 10 11 13 12 14 15
 1 5 6 2 4 0 7 3 8 9 10 11 13 12 14 15
 1 0 6 2 4 5 7 3 8 9 10 11 13 12 14 15
 1 6 0 2 4 5 7 3 8 9 10 11 13 12 14 15
 1 6 2 0 4 5 7 3 8 9 10 11 13 12 14 15
 1 6 2 3 4 5 7 0 8 9 10 11 13 12 14 15
 1 6 2 3 4 5 0 7 8 9 10 11 13 12 14 15
 1 6 2 3 4 0 5 7 8 9 10 11 13 12 14 15
 1 0 2 3 4 6 5 7 8 9 10 11 13 12 14 15
 0 1 2 3 4 6 5 7 8 9 10 11 13 12 14 15
 4 1 2 3 0 6 5 7 8 9 10 11 13 12 14 15
 4 1 2 3 6 0 5 7 8 9 10 11 13 12 14 15
 4 1 2 3 6 5 0 7 8 9 10 11 13 12 14 15
 4 1 0 3 6 5 2 7 8 9 10 11 13 12 14 15
 4 0 1 3 6 5 2 7 8 9 10 11 13 12 14 15
 4 5 1 3 6 0 2 7 8 9 10 11 13 12 14 15
 4 5 1 3 0 6 2 7 8 9 10 11 13 12 14 15
 0 5 1 3 4 6 2 7 8 9 10 11 13 12 14 15
 5 0 1 3 4 6 2 7 8 9 10 11 13 12 14 15
 5 1 0 3 4 6 2 7 8 9 10 11 13 12 14 15
 5 1 2 3 4 6 0 7 8 9 10 11 13 12 14 15
 5 1 2 3 4 0 6 7 8 9 10 11 13 12 14 15
 5 1 2 3 4 9 6 7 8 0 10 11 13 12 14 15
 5 1 2 3 4 9 6 7 8 12 10 11 13 0 14 15
 5 1 2 3 4 9 6 7 8 12 10 11 0 13 14 15
 5 1 2 3 4 9 6 7 0 12 10 11 8 13 14 15
 5 1 2 3 4 9 6 7 12 0 10 11 8 13 14 15
 5 1 2 3 4 0 6 7 12 9 10 11 8 13 14 15
 5 1 2 3 0 4 6 7 12 9 10 11 8 13 14 15
 5 1 2 3 12 4 6 7 0 9 10 11 8 13 14 15
 5 1 2 3 12 4 6 7 8 9 10 11 0 13 14 15
 5 1 2 3 12 4 6 7 8 9 10 11 13 0 14 15
 5 1 2 3 12 4 6 7 8 0 10 11 13 9 14 15
 5 1 2 3 12 4 6 7 0 8 10 11 13 9 14 15
 5 1 2 3 0 4 6 7 12 8 10 11 13 9 14 15
 5 1 2 3 4 0 6 7 12 8 10 11 13 9 14 15
 5 1 2 3 4 8 6 7 12 0 10 11 13 9 14 15
 5 1 2 3 4 8 6 7 12 9 10 11 13 0 14 15
 5 1 2 3 4 8 6 7 12 9 10 11 0 13 14 15
 5 1 2 3 4 8 6 7 0 9 10 11 12 13 14 15
 5 1 2 3 0 8 6 7 4 9 10 11 12 13 14 15
 0 1 2 3 5 8 6 7 4 9 10 11 12 13 14 15
 1 0 2 3 5 8 6 7 4 9 10 11 12 13 14 15
 1 8 2 3 5 0 6 7 4 9 10 11 12 13 14 15
 1 8 2 3 0 5 6 7 4 9 10 11 12 13 14 15
 1 8 2 3 4 5 6 7 0 9 10 11 12 13 14 15
 1 8 2 3 4 5 6 7 9 0 10 11 12 13 14 15
 1 8 2 3 4 0 6 7 9 5 10 11 12 13 14 15
 1 0 2 3 4 8 6 7 9 5 10 11 12 13 14 15
 0 1 2 3 4 8 6 7 9 5 10 11 12 13 14 15
 4 1 2 3 0 8 6 7 9 5 10 11 12 13 14 15
 4 1 2 3 8 0 6 7 9 5 10 11 12 13 14 15
 4 1 2 3 8 5 6 7 9 0 10 11 12 13 14 15
 4 1 2 3 8 5 6 7 0 9 10 11 12 13 14 15
 4 1 2 3 0 5 6 7 8 9 10 11 12 13 14 15
 0 1 2 3 4 5 6 7 8 9 10 11 12 13 14 15
