found: cddceebdbecdbbecccdbbeccdbbdceebdccebbdcecdbbecdcebbdddcebecdceebdbeccddbbbdccebbdccceebdbeccddbecebddcebecdbdbbeccdbebdccebdcceebdbeccddbebeecddceebbdcdceebdcdbeecdbdcee 170 44004
 10 2 11 15 0 4 12 14 3 7 5 8 13 1 9 6
 10 2 11 15 4 0 12 14 3 7 5 8 13 1 9 6
 10 2 11 15 4 12 0 14 3 7 5 8 13 1 9 6
 10 2 0 15 4 12 11 14 3 7 5 8 13 1 9 6
 10 0 2 15 4 12 11 14 3 7 5 8 13 1 9 6
 0 10 2 15 4 12 11 14 3 7 5 8 13 1 9 6
 4 10 2 15 0 12 11 14 3 7 5 8 13 1 9 6
 4 10 2 15 12 0 11 14 3 7 5 8 13 1 9 6
 4 10 2 15 12 7 11 14 3 0 5 8 13 1 9 6
 4 10 2 15 12 7 11 14 0 3 5 8 13 1 9 6
 4 10 2 15 0 7 11 14 12 3 5 8 13 1 9 6
 4 10 2 15 7 0 11 14 12 3 5 8 13 1 9 6
 4 10 2 15 7 3 11 14 12 0 5 8 13 1 9 6
 4 10 2 15 7 3 11 14 12 1 5 8 13 0 9 6
 4 10 2 15 7 3 11 14 12 1 5 8 0 13 9 6
 4 10 2 15 7 3 11 14 0 1 5 8 12 13 9 6
 4 10 2 15 0 3 11 14 7 1 5 8 12 13 9 6
 0 10 2 15 4 3 11 14 7 1 5 8 12 13 9 6
 10 0 2 15 4 3 11 14 7 1 5 8 12 13 9 6
 10 3 2 15 4 0 11 14 7 1 5 8 12 13 9 6
 10 3 2 15 4 1 11 14 7 0 5 8 12 13 9 6
 10 3 2 15 4 1 11 14 0 7 5 8 12 13 9 6
 10 3 2 15 0 1 11 14 4 7 5 8 12 13 9 6
 0 3 2 15 10 1 11 14 4 7 5 8 12 13 9 6
 3 0 2 15 10 1 11 14 4 7 5 8 12 13 9 6
 3 1 2 15 10 0 11 14 4 7 5 8 12 13 9 6
 3 1 2 15 10 7 11 14 4 0 5 8 12 13 9 6
 3 1 2 15 10 7 11 14 4 5 0 8 12 13 9 6
 3 1 2 15 10 7 0 14 4 5 11 8 12 13 9 6
 3 1 2 15 10 0 7 14 4 5 11 8 12 13 9 6
 3 1 2 15 0 10 7 14 4 5 11 8 12 13 9 6
 3 1 2 15 4 10 7 14 0 5 11 8 12 13 9 6
 3 1 2 15 4 10 7 14 5 0 11 8 12 13 9 6
 3 1 2 15 4 0 7 14 5 10 11 8 12 13 9 6
 3 0 2 15 4 1 7 14 5 10 11 8 12 13 9 6
 0 3 2 15 4 1 7 14 5 10 11 8 12 13 9 6
 4 3 2 15 0 1 7 14 5 10 11 8 12 13 9 6
 4 3 2 15 5 1 7 14 0 10 11 8 12 13 9 6
 4 3 2 15 5 1 7 14 10 0 11 8 12 13 9 6
 4 3 2 15 5 0 7 14 10 1 11 8 12 13 9 6
 4 3 2 15 0 5 7 14 10 1 11 8 12 13 9 6
 0 3 2 15 4 5 7 14 10 1 11 8 12 13 9 6
 3 0 2 15 4 5 7 14 10 1 11 8 12 13 9 6
 3 5 2 15 4 0 7 14 10 1 11 8 12 13 9 6
 3 5 2 15 4 1 7 14 10 0 11 8 12 13 9 6
 3 5 2 15 4 1 7 14 0 10 11 8 12 13 9 6
 3 5 2 15 0 1 7 14 4 10 11 8 12 13 9 6
 3 5 2 15 1 0 7 14 4 10 11 8 12 13 9 6
 3 0 2 15 1 5 7 14 4 10 11 8 12 13 9 6
 0 3 2 15 1 5 7 14 4 10 11 8 12 13 9 6
 1 3 2 15 0 5 7 14 4 10 11 8 12 13 9 6
 1 3 2 15 4 5 7 14 0 10 11 8 12 13 9 6
 1 3 2 15 4 5 7 14 10 0 11 8 12 13 9 6
 1 3 2 15 4 5 7 14 10 11 0 8 12 13 9 6
 1 3 2 15 4 5 7 14 10 11 8 0 12 13 9 6
 1 3 2 15 4 5 7 0 10 11 8 14 12 13 9 6
 1 3 2 15 4 5 0 7 10 11 8 14 12 13 9 6
 1 3 2 15 4 5 8 7 10 11 0 14 12 13 9 6
 1 3 2 15 4 5 8 7 10 0 11 14 12 13 9 6
 1 3 2 15 4 0 8 7 10 5 11 14 12 13 9 6
 1 3 2 15 4 8 0 7 10 5 11 14 12 13 9 6
 1 3 0 15 4 8 2 7 10 5 11 14 12 13 9 6
 1 0 3 15 4 8 2 7 10 5 11 14 12 13 9 6
 0 1 3 15 4 8 2 7 10 5 11 14 12 13 9 6
 4 1 3 15 0 8 2 7 10 5 11 14 12 13 9 6
 4 1 3 15 8 0 2 7 10 5 11 14 12 13 9 6
 4 1 3 15 8 5 2 7 10 0 11 14 12 13 9 6
 4 1 3 15 8 5 2 7 0 10 11 14 12 13 9 6
 4 1 3 15 0 5 2 7 8 10 11 14 12 13 9 6
 0 1 3 15 4 5 2 7 8 10 11 14 12 13 9 6
 1 0 3 15 4 5 2 7 8 10 11 14 12 13 9 6
 1 3 0 15 4 5 2 7 8 10 11 14 12 13 9 6
 1 3 2 15 4 5 0 7 8 10 11 14 12 13 9 6
 1 3 2 15 4 5 11 7 8 10 0 14 12 13 9 6
 1 3 2 15 4 5 11 7 8 10 9 14 12 13 0 6
 1 3 2 15 4 5 11 7 8 10 9 14 12 13 6 0
 1 3 2 15 4 5 11 7 8 10 9 0 12 13 6 14
 1 3 2 15 4 5 11 0 8 10 9 7 12 13 6 14
 1 3 2 15 4 5 0 11 8 10 9 7 12 13 6 14
 1 3 2 15 4 5 9 11 8 10 0 7 12 13 6 14
 1 3 2 15 4 5 9 11 8 10 6 7 12 13 0 14
 1 3 2 15 4 5 9 11 8 10 6 7 12 13 14 0
 1 3 2 15 4 5 9 11 8 10 6 0 12 13 14 7
 1 3 2 15 4 5 9 0 8 10 6 11 12 13 14 7
 1 3 2 0 4 5 9 15 8 10 6 11 12 13 14 7
 1 3 0 2 4 5 9 15 8 10 6 11 12 13 14 7
 1 0 3 2 4 5 9 15 8 10 6 11 12 13 14 7
 1 5 3 2 4 0 9 15 8 10 6 11 12 13 14 7
 1 5 3 2 4 9 0 15 8 10 6 11 12 13 14 7
 1 5 3 2 4 9 6 15 8 10 0 11 12 13 14 7
 1 5 3 2 4 9 6 15 8 0 10 11 12 13 14 7
 1 5 3 2 4 0 6 15 8 9 10 11 12 13 14 7
 1 0 3 2 4 5 6 15 8 9 10 11 12 13 14 7
 1 3 0 2 4 5 6 15 8 9 10 11 12 13 14 7
 1 3 2 0 4 5 6 15 8 9 10 11 12 13 14 7
 1 3 2 15 4 5 6 0 8 9 10 11 12 13 14 7
 1 3 2 15 4 5 0 6 8 9 10 11 12 13 14 7
 1 3 0 15 4 5 2 6 8 9 10 11 12 13 14 7
 1 0 3 15 4 5 2 6 8 9 10 11 12 13 14 7
 1 5 3 15 4 0 2 6 8 9 10 11 12 13 14 7
 1 5 3 15 4 2 0 6 8 9 10 11 12 13 14 7
 1 5 3 15 4 2 6 0 8 9 10 11 12 13 14 7
 1 5 3 0 4 2 6 15 8 9 10 11 12 13 14 7
 1 5 0 3 4 2 6 15 8 9 10 11 12 13 14 7
 1 5 6 3 4 2 0 15 8 9 10 11 12 13 14 7
 1 5 6 3 4 0 2 15 8 9 10 11 12 13 14 7
 1 0 6 3 4 5 2 15 8 9 10 11 12 13 14 7
 1 6 0 3 4 5 2 15 8 9 10 11 12 13 14 7
 1 6 2 3 4 5 0 15 8 9 10 11 12 13 14 7
 1 6 2 3 4 5 15 0 8 9 10 11 12 13 14 7
 1 6 2 3 4 5 15 11 8 9 10 0 12 13 14 7
 1 6 2 3 4 5 15 11 8 9 10 7 12 13 14 0
 1 6 2 3 4 5 15 11 8 9 10 7 12 13 0 14
 1 6 2 3 4 5 15 11 8 9 0 7 12 13 10 14
 1 6 2 3 4 5 0 11 8 9 15 7 12 13 10 14
 1 6 2 3 4 5 11 0 8 9 15 7 12 13 10 14
 1 6 2 3 4 5 11 7 8 9 15 0 12 13 10 14
 1 6 2 3 4 5 11 7 8 9 0 15 12 13 10 14
 1 6 2 3 4 5 11 7 8 9 10 15 12 13 0 14
 1 6 2 3 4 5 11 7 8 9 10 15 12 13 14 0
 1 6 2 3 4 5 11 7 8 9 10 0 12 13 14 15
 1 6 2 3 4 5 11 0 8 9 10 7 12 13 14 15
 1 6 2 3 4 5 0 11 8 9 10 7 12 13 14 15
 1 6 2 3 4 5 10 11 8 9 0 7 12 13 14 15
 1 6 2 3 4 5 10 11 8 9 7 0 12 13 14 15
 1 6 2 3 4 5 10 0 8 9 7 11 12 13 14 15
 1 6 2 0 4 5 10 3 8 9 7 11 12 13 14 15
 1 6 0 2 4 5 10 3 8 9 7 11 12 13 14 15
 1 0 6 2 4 5 10 3 8 9 7 11 12 13 14 15
 1 5 6 2 4 0 10 3 8 9 7 11 12 13 14 15
 1 5 6 2 4 10 0 3 8 9 7 11 12 13 14 15
 1 5 6 2 4 10 7 3 8 9 0 11 12 13 14 15
 1 5 6 2 4 10 7 3 8 0 9 11 12 13 14 15
 1 5 6 2 4 0 7 3 8 10 9 11 12 13 14 15
 1 0 6 2 4 5 7 3 8 10 9 11 12 13 14 15
 1 6 0 2 4 5 7 3 8 10 9 11 12 13 14 15
 1 6 2 0 4 5 7 3 8 10 9 11 12 13 14 15
 1 6 2 3 4 5 7 0 8 10 9 11 12 13 14 15
 1 6 2 3 4 5 0 7 8 10 9 11 12 13 14 15
 1 6 2 3 4 5 9 7 8 10 0 11 12 13 14 15
 1 6 2 3 4 5 9 7 8 0 10 11 12 13 14 15
 1 6 2 3 4 5 9 7 0 8 10 11 12 13 14 15
 1 6 2 3 0 5 9 7 4 8 10 11 12 13 14 15
 1 6 2 3 5 0 9 7 4 8 10 11 12 13 14 15
 1 6 2 3 5 9 0 7 4 8 10 11 12 13 14 15
 1 6 0 3 5 9 2 7 4 8 10 11 12 13 14 15
 1 0 6 3 5 9 2 7 4 8 10 11 12 13 14 15
 0 1 6 3 5 9 2 7 4 8 10 11 12 13 14 15
 5 1 6 3 0 9 2 7 4 8 10 11 12 13 14 15
 5 1 6 3 4 9 2 7 0 8 10 11 12 13 14 15
 5 1 6 3 4 9 2 7 8 0 10 11 12 13 14 15
 5 1 6 3 4 0 2 7 8 9 10 11 12 13 14 15
 5 1 6 3 4 2 0 7 8 9 10 11 12 13 14 15
 5 1 0 3 4 2 6 7 8 9 10 11 12 13 14 15
 5 0 1 3 4 2 6 7 8 9 10 11 12 13 14 15
 0 5 1 3 4 2 6 7 8 9 10 11 12 13 14 15
 4 5 1 3 0 2 6 7 8 9 10 11 12 13 14 15
 4 5 1 3 2 0 6 7 8 9 10 11 12 13 14 15
 4 0 1 3 2 5 6 7 8 9 10 11 12 13 14 15
 4 1 0 3 2 5 6 7 8 9 10 11 12 13 14 15
 4 1 6 3 2 5 0 7 8 9 10 11 12 13 14 15
 4 1 6 3 2 0 5 7 8 9 10 11 12 13 14 15
 4 1 6 3 0 2 5 7 8 9 10 11 12 13 14 15
 0 1 6 3 4 2 5 7 8 9 10 11 12 13 14 15
 1 0 6 3 4 2 5 7 8 9 10 11 12 13 14 15
 1 2 6 3 4 0 5 7 8 9 10 11 12 13 14 15
 1 2 6 3 4 5 0 7 8 9 10 11 12 13 14 15
 1 2 0 3 4 5 6 7 8 9 10 11 12 13 14 15
 1 0 2 3 4 5 6 7 8 9 10 11 12 13 14 15
 0 1 2 3 4 5 6 7 8 9 10 11 12 13 14 15
