found: ceebdceebdcdbecebbdcecdbbbeccdbeccdbebdcddceebdbbeeccdcebbddceecdbbecddbdceecdbdceeebbbdddcebecddcceebbeccdbbbecccdbebdccebdbeccdddbbbecdcebbdcecdbeecddceebbdccebdcdbeecdbdceee 176 57940
 7 15 11 0 9 5 8 12 3 13 6 10 14 2 4 1
 7 15 0 11 9 5 8 12 3 13 6 10 14 2 4 1
 7 0 15 11 9 5 8 12 3 13 6 10 14 2 4 1
 7 5 15 11 9 0 8 12 3 13 6 10 14 2 4 1
 7 5 15 11 9 8 0 12 3 13 6 10 14 2 4 1
 7 5 0 11 9 8 15 12 3 13 6 10 14 2 4 1
 7 0 5 11 9 8 15 12 3 13 6 10 14 2 4 1
 0 7 5 11 9 8 15 12 3 13 6 10 14 2 4 1
 9 7 5 11 0 8 15 12 3 13 6 10 14 2 4 1
 9 7 5 11 8 0 15 12 3 13 6 10 14 2 4 1
 9 0 5 11 8 7 15 12 3 13 6 10 14 2 4 1
 9 5 0 11 8 7 15 12 3 13 6 10 14 2 4 1
 9 5 15 11 8 7 0 12 3 13 6 10 14 2 4 1
 9 5 15 11 8 0 7 12 3 13 6 10 14 2 4 1
 9 0 15 11 8 5 7 12 3 13 6 10 14 2 4 1
 0 9 15 11 8 5 7 12 3 13 6 10 14 2 4 1
 8 9 15 11 0 5 7 12 3 13 6 10 14 2 4 1
 8 9 15 11 3 5 7 12 0 13 6 10 14 2 4 1
 8 9 15 11 3 5 7 12 13 0 6 10 14 2 4 1
 8 9 15 11 3 0 7 12 13 5 6 10 14 2 4 1
 8 9 15 11 0 3 7 12 13 5 6 10 14 2 4 1
 0 9 15 11 8 3 7 12 13 5 6 10 14 2 4 1
 9 0 15 11 8 3 7 12 13 5 6 10 14 2 4 1
 9 3 15 11 8 0 7 12 13 5 6 10 14 2 4 1
 9 3 15 11 8 5 7 12 13 0 6 10 14 2 4 1
 9 3 15 11 8 5 7 12 13 2 6 10 14 0 4 1
 9 3 15 11 8 5 7 12 13 2 6 10 0 14 4 1
 9 3 15 11 8 5 7 12 0 2 6 10 13 14 4 1
 9 3 15 11 0 5 7 12 8 2 6 10 13 14 4 1
 9 3 15 11 5 0 7 12 8 2 6 10 13 14 4 1
 9 3 15 11 5 2 7 12 8 0 6 10 13 14 4 1
 9 3 15 11 5 2 7 12 0 8 6 10 13 14 4 1
 9 3 15 11 0 2 7 12 5 8 6 10 13 14 4 1
 0 3 15 11 9 2 7 12 5 8 6 10 13 14 4 1
 3 0 15 11 9 2 7 12 5 8 6 10 13 14 4 1
 3 2 15 11 9 0 7 12 5 8 6 10 13 14 4 1
 3 2 15 11 0 9 7 12 5 8 6 10 13 14 4 1
 3 2 15 11 5 9 7 12 0 8 6 10 13 14 4 1
 3 2 15 11 5 9 7 12 8 0 6 10 13 14 4 1
 3 2 15 11 5 0 7 12 8 9 6 10 13 14 4 1
 3 2 15 11 5 7 0 12 8 9 6 10 13 14 4 1
 3 2 15 11 5 7 12 0 8 9 6 10 13 14 4 1
 3 2 15 0 5 7 12 11 8 9 6 10 13 14 4 1
 3 2 0 15 5 7 12 11 8 9 6 10 13 14 4 1
 3 0 2 15 5 7 12 11 8 9 6 10 13 14 4 1
 3 7 2 15 5 0 12 11 8 9 6 10 13 14 4 1
 3 7 2 15 5 12 0 11 8 9 6 10 13 14 4 1
 3 7 2 15 5 12 6 11 8 9 0 10 13 14 4 1
 3 7 2 15 5 12 6 11 8 9 4 10 13 14 0 1
 3 7 2 15 5 12 6 11 8 9 4 10 13 0 14 1
 3 7 2 15 5 12 6 11 8 9 4 10 0 13 14 1
 3 7 2 15 5 12 6 11 0 9 4 10 8 13 14 1
 3 7 2 15 0 12 6 11 5 9 4 10 8 13 14 1
 3 7 2 15 12 0 6 11 5 9 4 10 8 13 14 1
 3 0 2 15 12 7 6 11 5 9 4 10 8 13 14 1
 0 3 2 15 12 7 6 11 5 9 4 10 8 13 14 1
 12 3 2 15 0 7 6 11 5 9 4 10 8 13 14 1
 12 3 2 15 5 7 6 11 0 9 4 10 8 13 14 1
 12 3 2 15 5 7 6 11 9 0 4 10 8 13 14 1
 12 3 2 15 5 7 6 11 9 4 0 10 8 13 14 1
 12 3 2 15 5 7 0 11 9 4 6 10 8 13 14 1
 12 3 2 15 5 0 7 11 9 4 6 10 8 13 14 1
 12 3 2 15 0 5 7 11 9 4 6 10 8 13 14 1
 0 3 2 15 12 5 7 11 9 4 6 10 8 13 14 1
 3 0 2 15 12 5 7 11 9 4 6 10 8 13 14 1
 3 5 2 15 12 0 7 11 9 4 6 10 8 13 14 1
 3 5 2 15 12 4 7 11 9 0 6 10 8 13 14 1
 3 5 2 15 12 4 7 11 0 9 6 10 8 13 14 1
 3 5 2 15 0 4 7 11 12 9 6 10 8 13 14 1
 3 5 2 15 4 0 7 11 12 9 6 10 8 13 14 1
 3 5 2 15 4 7 0 11 12 9 6 10 8 13 14 1
 3 5 2 15 4 7 6 11 12 9 0 10 8 13 14 1
 3 5 2 15 4 7 6 11 12 9 10 0 8 13 14 1
 3 5 2 15 4 7 6 0 12 9 10 11 8 13 14 1
 3 5 2 15 4 7 0 6 12 9 10 11 8 13 14 1
 3 5 2 15 4 0 7 6 12 9 10 11 8 13 14 1
 3 0 2 15 4 5 7 6 12 9 10 11 8 13 14 1
 3 2 0 15 4 5 7 6 12 9 10 11 8 13 14 1
 3 2 7 15 4 5 0 6 12 9 10 11 8 13 14 1
 3 2 7 15 4 5 6 0 12 9 10 11 8 13 14 1
 3 2 7 0 4 5 6 15 12 9 10 11 8 13 14 1
 3 2 0 7 4 5 6 15 12 9 10 11 8 13 14 1
 3 0 2 7 4 5 6 15 12 9 10 11 8 13 14 1
 0 3 2 7 4 5 6 15 12 9 10 11 8 13 14 1
 4 3 2 7 0 5 6 15 12 9 10 11 8 13 14 1
 4 3 2 7 12 5 6 15 0 9 10 11 8 13 14 1
 4 3 2 7 12 5 6 15 8 9 10 11 0 13 14 1
 4 3 2 7 12 5 6 15 8 9 10 11 13 0 14 1
 4 3 2 7 12 5 6 15 8 9 10 11 13 14 0 1
 4 3 2 7 12 5 6 15 8 9 10 11 13 14 1 0
 4 3 2 7 12 5 6 15 8 9 10 0 13 14 1 11
 4 3 2 7 12 5 6 15 8 9 0 10 13 14 1 11
 4 3 2 7 12 5 6 15 8 9 1 10 13 14 0 11
 4 3 2 7 12 5 6 15 8 9 1 10 13 0 14 11
 4 3 2 7 12 5 6 15 8 0 1 10 13 9 14 11
 4 3 2 7 12 5 6 15 8 1 0 10 13 9 14 11
 4 3 2 7 12 5 6 15 8 1 10 0 13 9 14 11
 4 3 2 7 12 5 6 0 8 1 10 15 13 9 14 11
 4 3 2 0 12 5 6 7 8 1 10 15 13 9 14 11
 4 3 0 2 12 5 6 7 8 1 10 15 13 9 14 11
 4 0 3 2 12 5 6 7 8 1 10 15 13 9 14 11
 4 5 3 2 12 0 6 7 8 1 10 15 13 9 14 11
 4 5 3 2 12 1 6 7 8 0 10 15 13 9 14 11
 4 5 3 2 12 1 6 7 0 8 10 15 13 9 14 11
 4 5 3 2 0 1 6 7 12 8 10 15 13 9 14 11
 0 5 3 2 4 1 6 7 12 8 10 15 13 9 14 11
 5 0 3 2 4 1 6 7 12 8 10 15 13 9 14 11
 5 1 3 2 4 0 6 7 12 8 10 15 13 9 14 11
 5 1 3 2 4 8 6 7 12 0 10 15 13 9 14 11
 5 1 3 2 4 8 6 7 12 9 10 15 13 0 14 11
 5 1 3 2 4 8 6 7 12 9 10 15 0 13 14 11
 5 1 3 2 4 8 6 7 0 9 10 15 12 13 14 11
 5 1 3 2 0 8 6 7 4 9 10 15 12 13 14 11
 0 1 3 2 5 8 6 7 4 9 10 15 12 13 14 11
 1 0 3 2 5 8 6 7 4 9 10 15 12 13 14 11
 1 8 3 2 5 0 6 7 4 9 10 15 12 13 14 11
 1 8 3 2 0 5 6 7 4 9 10 15 12 13 14 11
 1 8 3 2 4 5 6 7 0 9 10 15 12 13 14 11
 1 8 3 2 4 5 6 7 9 0 10 15 12 13 14 11
 1 8 3 2 4 0 6 7 9 5 10 15 12 13 14 11
 1 0 3 2 4 8 6 7 9 5 10 15 12 13 14 11
 0 1 3 2 4 8 6 7 9 5 10 15 12 13 14 11
 4 1 3 2 0 8 6 7 9 5 10 15 12 13 14 11
 4 1 3 2 8 0 6 7 9 5 10 15 12 13 14 11
 4 1 3 2 8 5 6 7 9 0 10 15 12 13 14 11
 4 1 3 2 8 5 6 7 0 9 10 15 12 13 14 11
 4 1 3 2 0 5 6 7 8 9 10 15 12 13 14 11
 0 1 3 2 4 5 6 7 8 9 10 15 12 13 14 11
 1 0 3 2 4 5 6 7 8 9 10 15 12 13 14 11
 1 3 0 2 4 5 6 7 8 9 10 15 12 13 14 11
 1 3 2 0 4 5 6 7 8 9 10 15 12 13 14 11
 1 3 2 7 4 5 6 0 8 9 10 15 12 13 14 11
 1 3 2 7 4 5 6 15 8 9 10 0 12 13 14 11
 1 3 2 7 4 5 6 15 8 9 10 11 12 13 14 0
 1 3 2 7 4 5 6 15 8 9 10 11 12 13 0 14
 1 3 2 7 4 5 6 15 8 9 0 11 12 13 10 14
 1 3 2 7 4 5 6 15 8 9 11 0 12 13 10 14
 1 3 2 7 4 5 6 0 8 9 11 15 12 13 10 14
 1 3 2 7 4 5 0 6 8 9 11 15 12 13 10 14
 1 3 2 7 4 5 11 6 8 9 0 15 12 13 10 14
 1 3 2 7 4 5 11 6 8 9 10 15 12 13 0 14
 1 3 2 7 4 5 11 6 8 9 10 15 12 13 14 0
 1 3 2 7 4 5 11 6 8 9 10 0 12 13 14 15
 1 3 2 7 4 5 11 6 8 9 0 10 12 13 14 15
 1 3 2 7 4 5 0 6 8 9 11 10 12 13 14 15
 1 3 2 7 4 5 6 0 8 9 11 10 12 13 14 15
 1 3 2 7 4 5 6 10 8 9 11 0 12 13 14 15
 1 3 2 7 4 5 6 10 8 9 0 11 12 13 14 15
 1 3 2 7 4 5 6 10 8 0 9 11 12 13 14 15
 1 3 2 7 4 0 6 10 8 5 9 11 12 13 14 15
 1 3 2 7 4 6 0 10 8 5 9 11 12 13 14 15
 1 3 2 7 4 6 10 0 8 5 9 11 12 13 14 15
 1 3 2 0 4 6 10 7 8 5 9 11 12 13 14 15
 1 3 0 2 4 6 10 7 8 5 9 11 12 13 14 15
 1 0 3 2 4 6 10 7 8 5 9 11 12 13 14 15
 1 6 3 2 4 0 10 7 8 5 9 11 12 13 14 15
 1 6 3 2 4 5 10 7 8 0 9 11 12 13 14 15
 1 6 3 2 4 5 10 7 8 9 0 11 12 13 14 15
 1 6 3 2 4 5 0 7 8 9 10 11 12 13 14 15
 1 6 0 2 4 5 3 7 8 9 10 11 12 13 14 15
 1 0 6 2 4 5 3 7 8 9 10 11 12 13 14 15
 1 5 6 2 4 0 3 7 8 9 10 11 12 13 14 15
 1 5 6 2 4 3 0 7 8 9 10 11 12 13 14 15
 1 5 0 2 4 3 6 7 8 9 10 11 12 13 14 15
 1 5 2 0 4 3 6 7 8 9 10 11 12 13 14 15
 1 5 2 7 4 3 6 0 8 9 10 11 12 13 14 15
 1 5 2 7 4 3 0 6 8 9 10 11 12 13 14 15
 1 5 2 7 4 0 3 6 8 9 10 11 12 13 14 15
 1 0 2 7 4 5 3 6 8 9 10 11 12 13 14 15
 1 2 0 7 4 5 3 6 8 9 10 11 12 13 14 15
 1 2 3 7 4 5 0 6 8 9 10 11 12 13 14 15
 1 2 3 7 4 5 6 0 8 9 10 11 12 13 14 15
 1 2 3 0 4 5 6 7 8 9 10 11 12 13 14 15
 1 2 0 3 4 5 6 7 8 9 10 11 12 13 14 15
 1 0 2 3 4 5 6 7 8 9 10 11 12 13 14 15
 0 1 2 3 4 5 6 7 8 9 10 11 12 13 14 15
