found: cdbeebdcebbdcecdbeccdbebddcebeccdbebdcebbdcccebbbdcddcebbecebdddcecdbbecdcebeecddbecebdddcebecddbecebdbdceeebddcdbeceebdcdbdcebecddbeceeccdbebdccebbdbeccdbebdccec 162 7064
 7 0 11 3 10 15 2 9 13 8 5 14 1 4 6 12
 7 11 0 3 10 15 2 9 13 8 5 14 1 4 6 12
 7 11 2 3 10 15 0 9 13 8 5 14 1 4 6 12
 7 11 2 3 10 0 15 9 13 8 5 14 1 4 6 12
 7 11 2 3 0 10 15 9 13 8 5 14 1 4 6 12
 7 11 2 3 13 10 15 9 0 8 5 14 1 4 6 12
 7 11 2 3 13 10 15 9 8 0 5 14 1 4 6 12
 7 11 2 3 13 0 15 9 8 10 5 14 1 4 6 12
 7 11 2 3 0 13 15 9 8 10 5 14 1 4 6 12
 7 11 2 3 8 13 15 9 0 10 5 14 1 4 6 12
 7 11 2 3 8 13 15 9 1 10 5 14 0 4 6 12
 7 11 2 3 8 13 15 9 1 10 5 14 4 0 6 12
 7 11 2 3 8 13 15 9 1 0 5 14 4 10 6 12
 7 11 2 3 8 13 15 9 0 1 5 14 4 10 6 12
 7 11 2 3 0 13 15 9 8 1 5 14 4 10 6 12
 7 11 2 3 13 0 15 9 8 1 5 14 4 10 6 12
 7 11 2 3 13 1 15 9 8 0 5 14 4 10 6 12
 7 11 2 3 13 1 15 9 0 8 5 14 4 10 6 12
 7 11 2 3 0 1 15 9 13 8 5 14 4 10 6 12
 0 11 2 3 7 1 15 9 13 8 5 14 4 10 6 12
 11 0 2 3 7 1 15 9 13 8 5 14 4 10 6 12
 11 1 2 3 7 0 15 9 13 8 5 14 4 10 6 12
 11 1 2 3 0 7 15 9 13 8 5 14 4 10 6 12
 11 1 2 3 13 7 15 9 0 8 5 14 4 10 6 12
 11 1 2 3 13 7 15 9 8 0 5 14 4 10 6 12
 11 1 2 3 13 7 15 9 8 5 0 14 4 10 6 12
 11 1 2 3 13 7 0 9 8 5 15 14 4 10 6 12
 11 1 2 3 13 0 7 9 8 5 15 14 4 10 6 12
 11 1 2 3 13 5 7 9 8 0 15 14 4 10 6 12
 11 1 2 3 13 5 7 9 0 8 15 14 4 10 6 12
 11 1 2 3 0 5 7 9 13 8 15 14 4 10 6 12
 0 1 2 3 11 5 7 9 13 8 15 14 4 10 6 12
 1 0 2 3 11 5 7 9 13 8 15 14 4 10 6 12
 1 5 2 3 11 0 7 9 13 8 15 14 4 10 6 12
 1 5 2 3 0 11 7 9 13 8 15 14 4 10 6 12
 1 5 2 3 13 11 7 9 0 8 15 14 4 10 6 12
 1 5 2 3 13 11 7 9 8 0 15 14 4 10 6 12
 1 5 2 3 13 0 7 9 8 11 15 14 4 10 6 12
 1 5 2 3 0 13 7 9 8 11 15 14 4 10 6 12
 1 5 2 3 8 13 7 9 0 11 15 14 4 10 6 12
 1 5 2 3 8 13 7 9 4 11 15 14 0 10 6 12
 1 5 2 3 8 13 7 9 4 11 15 14 10 0 6 12
 1 5 2 3 8 13 7 9 4 0 15 14 10 11 6 12
 1 5 2 3 8 0 7 9 4 13 15 14 10 11 6 12
 1 0 2 3 8 5 7 9 4 13 15 14 10 11 6 12
 0 1 2 3 8 5 7 9 4 13 15 14 10 11 6 12
 8 1 2 3 0 5 7 9 4 13 15 14 10 11 6 12
 8 1 2 3 4 5 7 9 0 13 15 14 10 11 6 12
 8 1 2 3 4 5 7 9 10 13 15 14 0 11 6 12
 8 1 2 3 4 5 7 9 10 13 15 14 11 0 6 12
 8 1 2 3 4 5 7 9 10 0 15 14 11 13 6 12
 8 1 2 3 4 5 7 9 10 15 0 14 11 13 6 12
 8 1 2 3 4 5 7 9 10 15 14 0 11 13 6 12
 8 1 2 3 4 5 7 0 10 15 14 9 11 13 6 12
 8 1 2 3 4 5 0 7 10 15 14 9 11 13 6 12
 8 1 2 3 4 5 14 7 10 15 0 9 11 13 6 12
 8 1 2 3 4 5 14 7 10 15 6 9 11 13 0 12
 8 1 2 3 4 5 14 7 10 15 6 9 11 0 13 12
 8 1 2 3 4 5 14 7 10 0 6 9 11 15 13 12
 8 1 2 3 4 5 14 7 0 10 6 9 11 15 13 12
 8 1 2 3 4 5 14 7 11 10 6 9 0 15 13 12
 8 1 2 3 4 5 14 7 11 10 6 9 15 0 13 12
 8 1 2 3 4 5 14 7 11 10 6 9 15 13 0 12
 8 1 2 3 4 5 14 7 11 10 6 9 15 13 12 0
 8 1 2 3 4 5 14 7 11 10 6 0 15 13 12 9
 8 1 2 3 4 5 14 7 11 10 0 6 15 13 12 9
 8 1 2 3 4 5 0 7 11 10 14 6 15 13 12 9
 8 1 2 3 4 5 7 0 11 10 14 6 15 13 12 9
 8 1 2 3 4 5 7 6 11 10 14 0 15 13 12 9
 8 1 2 3 4 5 7 6 11 10 14 9 15 13 12 0
 8 1 2 3 4 5 7 6 11 10 14 9 15 13 0 12
 8 1 2 3 4 5 7 6 11 10 0 9 15 13 14 12
 8 1 2 3 4 5 7 6 11 10 9 0 15 13 14 12
 8 1 2 3 4 5 7 0 11 10 9 6 15 13 14 12
 8 1 2 3 4 5 0 7 11 10 9 6 15 13 14 12
 8 1 2 3 4 5 9 7 11 10 0 6 15 13 14 12
 8 1 2 3 4 5 9 7 11 0 10 6 15 13 14 12
 8 1 2 3 4 5 9 7 0 11 10 6 15 13 14 12
 8 1 2 3 0 5 9 7 4 11 10 6 15 13 14 12
 8 1 2 3 5 0 9 7 4 11 10 6 15 13 14 12
 8 1 2 3 5 9 0 7 4 11 10 6 15 13 14 12
 8 1 2 3 5 9 10 7 4 11 0 6 15 13 14 12
 8 1 2 3 5 9 10 7 4 0 11 6 15 13 14 12
 8 1 2 3 5 0 10 7 4 9 11 6 15 13 14 12
 8 1 2 3 0 5 10 7 4 9 11 6 15 13 14 12
 8 1 2 3 4 5 10 7 0 9 11 6 15 13 14 12
 8 1 2 3 4 5 10 7 9 0 11 6 15 13 14 12
 8 1 2 3 4 5 10 7 9 11 0 6 15 13 14 12
 8 1 2 3 4 5 10 7 9 11 6 0 15 13 14 12
 8 1 2 3 4 5 10 0 9 11 6 7 15 13 14 12
 8 1 2 3 4 5 0 10 9 11 6 7 15 13 14 12
 8 1 2 3 4 5 6 10 9 11 0 7 15 13 14 12
 8 1 2 3 4 5 6 10 9 0 11 7 15 13 14 12
 8 1 2 3 4 0 6 10 9 5 11 7 15 13 14 12
 8 1 2 3 4 6 0 10 9 5 11 7 15 13 14 12
 8 1 2 3 4 6 10 0 9 5 11 7 15 13 14 12
 8 1 2 3 4 6 10 7 9 5 11 0 15 13 14 12
 8 1 2 3 4 6 10 7 9 5 0 11 15 13 14 12
 8 1 2 3 4 6 0 7 9 5 10 11 15 13 14 12
 8 1 2 3 4 0 6 7 9 5 10 11 15 13 14 12
 8 1 2 3 4 5 6 7 9 0 10 11 15 13 14 12
 8 1 2 3 4 5 6 7 9 10 0 11 15 13 14 12
 8 1 2 3 4 5 6 7 9 10 14 11 15 13 0 12
 8 1 2 3 4 5 6 7 9 10 14 11 15 13 12 0
 8 1 2 3 4 5 6 7 9 10 14 0 15 13 12 11
 8 1 2 3 4 5 6 7 9 10 0 14 15 13 12 11
 8 1 2 3 4 5 6 7 9 0 10 14 15 13 12 11
 8 1 2 3 4 5 6 7 0 9 10 14 15 13 12 11
 8 1 2 3 4 5 6 7 15 9 10 14 0 13 12 11
 8 1 2 3 4 5 6 7 15 9 10 14 13 0 12 11
 8 1 2 3 4 5 6 7 15 9 10 14 13 12 0 11
 8 1 2 3 4 5 6 7 15 9 0 14 13 12 10 11
 8 1 2 3 4 5 6 7 15 9 14 0 13 12 10 11
 8 1 2 3 4 5 6 7 15 9 14 11 13 12 10 0
 8 1 2 3 4 5 6 7 15 9 14 11 13 12 0 10
 8 1 2 3 4 5 6 7 15 9 0 11 13 12 14 10
 8 1 2 3 4 5 6 7 15 0 9 11 13 12 14 10
 8 1 2 3 4 5 6 7 0 15 9 11 13 12 14 10
 8 1 2 3 4 5 6 7 13 15 9 11 0 12 14 10
 8 1 2 3 4 5 6 7 13 15 9 11 12 0 14 10
 8 1 2 3 4 5 6 7 13 0 9 11 12 15 14 10
 8 1 2 3 4 5 6 7 13 9 0 11 12 15 14 10
 8 1 2 3 4 5 6 7 13 9 14 11 12 15 0 10
 8 1 2 3 4 5 6 7 13 9 14 11 12 15 10 0
 8 1 2 3 4 5 6 7 13 9 14 0 12 15 10 11
 8 1 2 3 4 5 6 7 13 9 0 14 12 15 10 11
 8 1 2 3 4 5 6 7 13 9 10 14 12 15 0 11
 8 1 2 3 4 5 6 7 13 9 10 14 12 0 15 11
 8 1 2 3 4 5 6 7 13 0 10 14 12 9 15 11
 8 1 2 3 4 5 6 7 13 10 0 14 12 9 15 11
 8 1 2 3 4 5 6 7 13 10 14 0 12 9 15 11
 8 1 2 3 4 5 6 7 13 10 14 11 12 9 15 0
 8 1 2 3 4 5 6 7 13 10 14 11 12 9 0 15
 8 1 2 3 4 5 6 7 13 10 0 11 12 9 14 15
 8 1 2 3 4 5 6 7 13 0 10 11 12 9 14 15
 8 1 2 3 4 5 6 7 0 13 10 11 12 9 14 15
 8 1 2 3 0 5 6 7 4 13 10 11 12 9 14 15
 0 1 2 3 8 5 6 7 4 13 10 11 12 9 14 15
 1 0 2 3 8 5 6 7 4 13 10 11 12 9 14 15
 1 5 2 3 8 0 6 7 4 13 10 11 12 9 14 15
 1 5 2 3 0 8 6 7 4 13 10 11 12 9 14 15
 1 5 2 3 4 8 6 7 0 13 10 11 12 9 14 15
 1 5 2 3 4 8 6 7 13 0 10 11 12 9 14 15
 1 5 2 3 4 0 6 7 13 8 10 11 12 9 14 15
 1 0 2 3 4 5 6 7 13 8 10 11 12 9 14 15
 0 1 2 3 4 5 6 7 13 8 10 11 12 9 14 15
 4 1 2 3 0 5 6 7 13 8 10 11 12 9 14 15
 4 1 2 3 13 5 6 7 0 8 10 11 12 9 14 15
 4 1 2 3 13 5 6 7 8 0 10 11 12 9 14 15
 4 1 2 3 13 5 6 7 8 9 10 11 12 0 14 15
 4 1 2 3 13 5 6 7 8 9 10 11 0 12 14 15
 4 1 2 3 13 5 6 7 0 9 10 11 8 12 14 15
 4 1 2 3 0 5 6 7 13 9 10 11 8 12 14 15
 4 1 2 3 5 0 6 7 13 9 10 11 8 12 14 15
 4 1 2 3 5 9 6 7 13 0 10 11 8 12 14 15
 4 1 2 3 5 9 6 7 0 13 10 11 8 12 14 15
 4 1 2 3 5 9 6 7 8 13 10 11 0 12 14 15
 4 1 2 3 5 9 6 7 8 13 10 11 12 0 14 15
 4 1 2 3 5 9 6 7 8 0 10 11 12 13 14 15
 4 1 2 3 5 0 6 7 8 9 10 11 12 13 14 15
 4 1 2 3 0 5 6 7 8 9 10 11 12 13 14 15
 0 1 2 3 4 5 6 7 8 9 10 11 12 13 14 15
