found: cecdbeebdbeccdcebdbbdccceebbdcecdbbdcdceebdbeccebdcdbeecdbdceebddcebecdbbeccdbebdccebbbdcddbeeccdbeecddcebecddbecebbdbeccdbddceebdcdbeecebddceebdcdbebeccdbebdccebdbddcebdcebeecdddbeceecc 186 48162
 3 10 4 7 5 15 0 9 2 13 14 1 11 6 12 8
 3 10 4 7 5 0 15 9 2 13 14 1 11 6 12 8
 3 0 4 7 5 10 15 9 2 13 14 1 11 6 12 8
 3 4 0 7 5 10 15 9 2 13 14 1 11 6 12 8
 3 4 15 7 5 10 0 9 2 13 14 1 11 6 12 8
 3 4 15 7 5 0 10 9 2 13 14 1 11 6 12 8
 3 4 15 7 0 5 10 9 2 13 14 1 11 6 12 8
 3 4 15 7 2 5 10 9 0 13 14 1 11 6 12 8
 3 4 15 7 2 5 10 9 13 0 14 1 11 6 12 8
 3 4 15 7 2 5 10 9 13 6 14 1 11 0 12 8
 3 4 15 7 2 5 10 9 13 6 14 1 0 11 12 8
 3 4 15 7 2 5 10 9 0 6 14 1 13 11 12 8
 3 4 15 7 0 5 10 9 2 6 14 1 13 11 12 8
 3 4 15 7 5 0 10 9 2 6 14 1 13 11 12 8
 3 0 15 7 5 4 10 9 2 6 14 1 13 11 12 8
 0 3 15 7 5 4 10 9 2 6 14 1 13 11 12 8
 5 3 15 7 0 4 10 9 2 6 14 1 13 11 12 8
 5 3 15 7 4 0 10 9 2 6 14 1 13 11 12 8
 5 3 15 7 4 6 10 9 2 0 14 1 13 11 12 8
 5 3 15 7 4 6 10 9 2 11 14 1 13 0 12 8
 5 3 15 7 4 6 10 9 2 11 14 1 13 12 0 8
 5 3 15 7 4 6 10 9 2 11 0 1 13 12 14 8
 5 3 15 7 4 6 0 9 2 11 10 1 13 12 14 8
 5 3 0 7 4 6 15 9 2 11 10 1 13 12 14 8
 5 0 3 7 4 6 15 9 2 11 10 1 13 12 14 8
 0 5 3 7 4 6 15 9 2 11 10 1 13 12 14 8
 4 5 3 7 0 6 15 9 2 11 10 1 13 12 14 8
 4 5 3 7 2 6 15 9 0 11 10 1 13 12 14 8
 4 5 3 7 2 6 15 9 11 0 10 1 13 12 14 8
 4 5 3 7 2 0 15 9 11 6 10 1 13 12 14 8
 4 5 3 7 0 2 15 9 11 6 10 1 13 12 14 8
 0 5 3 7 4 2 15 9 11 6 10 1 13 12 14 8
 5 0 3 7 4 2 15 9 11 6 10 1 13 12 14 8
 5 2 3 7 4 0 15 9 11 6 10 1 13 12 14 8
 5 2 3 7 4 6 15 9 11 0 10 1 13 12 14 8
 5 2 3 7 4 6 15 9 11 10 0 1 13 12 14 8
 5 2 3 7 4 6 0 9 11 10 15 1 13 12 14 8
 5 2 3 7 4 6 9 0 11 10 15 1 13 12 14 8
 5 2 3 0 4 6 9 7 11 10 15 1 13 12 14 8
 5 2 0 3 4 6 9 7 11 10 15 1 13 12 14 8
 5 0 2 3 4 6 9 7 11 10 15 1 13 12 14 8
 5 6 2 3 4 0 9 7 11 10 15 1 13 12 14 8
 5 6 2 3 4 9 0 7 11 10 15 1 13 12 14 8
 5 6 2 3 4 9 15 7 11 10 0 1 13 12 14 8
 5 6 2 3 4 9 15 7 11 0 10 1 13 12 14 8
 5 6 2 3 4 0 15 7 11 9 10 1 13 12 14 8
 5 0 2 3 4 6 15 7 11 9 10 1 13 12 14 8
 0 5 2 3 4 6 15 7 11 9 10 1 13 12 14 8
 4 5 2 3 0 6 15 7 11 9 10 1 13 12 14 8
 4 5 2 3 6 0 15 7 11 9 10 1 13 12 14 8
 4 0 2 3 6 5 15 7 11 9 10 1 13 12 14 8
 4 2 0 3 6 5 15 7 11 9 10 1 13 12 14 8
 4 2 15 3 6 5 0 7 11 9 10 1 13 12 14 8
 4 2 15 3 6 0 5 7 11 9 10 1 13 12 14 8
 4 2 15 3 0 6 5 7 11 9 10 1 13 12 14 8
 0 2 15 3 4 6 5 7 11 9 10 1 13 12 14 8
 2 0 15 3 4 6 5 7 11 9 10 1 13 12 14 8
 2 6 15 3 4 0 5 7 11 9 10 1 13 12 14 8
 2 6 15 3 4 5 0 7 11 9 10 1 13 12 14 8
 2 6 0 3 4 5 15 7 11 9 10 1 13 12 14 8
 2 0 6 3 4 5 15 7 11 9 10 1 13 12 14 8
 0 2 6 3 4 5 15 7 11 9 10 1 13 12 14 8
 4 2 6 3 0 5 15 7 11 9 10 1 13 12 14 8
 4 2 6 3 5 0 15 7 11 9 10 1 13 12 14 8
 4 2 6 3 5 15 0 7 11 9 10 1 13 12 14 8
 4 2 0 3 5 15 6 7 11 9 10 1 13 12 14 8
 4 0 2 3 5 15 6 7 11 9 10 1 13 12 14 8
 4 15 2 3 5 0 6 7 11 9 10 1 13 12 14 8
 4 15 2 3 0 5 6 7 11 9 10 1 13 12 14 8
 0 15 2 3 4 5 6 7 11 9 10 1 13 12 14 8
 15 0 2 3 4 5 6 7 11 9 10 1 13 12 14 8
 15 5 2 3 4 0 6 7 11 9 10 1 13 12 14 8
 15 5 2 3 4 9 6 7 11 0 10 1 13 12 14 8
 15 5 2 3 4 9 6 7 0 11 10 1 13 12 14 8
 15 5 2 3 0 9 6 7 4 11 10 1 13 12 14 8
 0 5 2 3 15 9 6 7 4 11 10 1 13 12 14 8
 5 0 2 3 15 9 6 7 4 11 10 1 13 12 14 8
 5 9 2 3 15 0 6 7 4 11 10 1 13 12 14 8
 5 9 2 3 0 15 6 7 4 11 10 1 13 12 14 8
 5 9 2 3 4 15 6 7 0 11 10 1 13 12 14 8
 5 9 2 3 4 15 6 7 11 0 10 1 13 12 14 8
 5 9 2 3 4 0 6 7 11 15 10 1 13 12 14 8
 5 0 2 3 4 9 6 7 11 15 10 1 13 12 14 8
 0 5 2 3 4 9 6 7 11 15 10 1 13 12 14 8
 4 5 2 3 0 9 6 7 11 15 10 1 13 12 14 8
 4 5 2 3 11 9 6 7 0 15 10 1 13 12 14 8
 4 5 2 3 11 9 6 7 13 15 10 1 0 12 14 8
 4 5 2 3 11 9 6 7 13 15 10 1 12 0 14 8
 4 5 2 3 11 9 6 7 13 0 10 1 12 15 14 8
 4 5 2 3 11 9 6 7 13 10 0 1 12 15 14 8
 4 5 2 3 11 9 6 7 13 10 1 0 12 15 14 8
 4 5 2 3 11 9 6 7 13 10 1 8 12 15 14 0
 4 5 2 3 11 9 6 7 13 10 1 8 12 15 0 14
 4 5 2 3 11 9 6 7 13 10 1 8 12 0 15 14
 4 5 2 3 11 9 6 7 13 0 1 8 12 10 15 14
 4 5 2 3 11 0 6 7 13 9 1 8 12 10 15 14
 4 5 2 3 11 6 0 7 13 9 1 8 12 10 15 14
 4 5 2 3 11 6 1 7 13 9 0 8 12 10 15 14
 4 5 2 3 11 6 1 7 13 0 9 8 12 10 15 14
 4 5 2 3 11 6 1 7 0 13 9 8 12 10 15 14
 4 5 2 3 0 6 1 7 11 13 9 8 12 10 15 14
 4 5 2 3 6 0 1 7 11 13 9 8 12 10 15 14
 4 5 2 3 6 1 0 7 11 13 9 8 12 10 15 14
 4 5 0 3 6 1 2 7 11 13 9 8 12 10 15 14
 4 0 5 3 6 1 2 7 11 13 9 8 12 10 15 14
 4 1 5 3 6 0 2 7 11 13 9 8 12 10 15 14
 4 1 5 3 0 6 2 7 11 13 9 8 12 10 15 14
 0 1 5 3 4 6 2 7 11 13 9 8 12 10 15 14
 1 0 5 3 4 6 2 7 11 13 9 8 12 10 15 14
 1 5 0 3 4 6 2 7 11 13 9 8 12 10 15 14
 1 5 2 3 4 6 0 7 11 13 9 8 12 10 15 14
 1 5 2 3 4 0 6 7 11 13 9 8 12 10 15 14
 1 0 2 3 4 5 6 7 11 13 9 8 12 10 15 14
 0 1 2 3 4 5 6 7 11 13 9 8 12 10 15 14
 4 1 2 3 0 5 6 7 11 13 9 8 12 10 15 14
 4 1 2 3 11 5 6 7 0 13 9 8 12 10 15 14
 4 1 2 3 11 5 6 7 13 0 9 8 12 10 15 14
 4 1 2 3 11 5 6 7 13 10 9 8 12 0 15 14
 4 1 2 3 11 5 6 7 13 10 9 8 0 12 15 14
 4 1 2 3 11 5 6 7 0 10 9 8 13 12 15 14
 4 1 2 3 0 5 6 7 11 10 9 8 13 12 15 14
 4 1 2 3 5 0 6 7 11 10 9 8 13 12 15 14
 4 1 2 3 5 10 6 7 11 0 9 8 13 12 15 14
 4 1 2 3 5 10 6 7 11 9 0 8 13 12 15 14
 4 1 2 3 5 10 6 7 11 9 8 0 13 12 15 14
 4 1 2 3 5 10 6 0 11 9 8 7 13 12 15 14
 4 1 2 3 5 10 0 6 11 9 8 7 13 12 15 14
 4 1 2 3 5 0 10 6 11 9 8 7 13 12 15 14
 4 1 2 3 5 9 10 6 11 0 8 7 13 12 15 14
 4 1 2 3 5 9 10 6 11 8 0 7 13 12 15 14
 4 1 2 3 5 9 0 6 11 8 10 7 13 12 15 14
 4 1 2 3 5 9 6 0 11 8 10 7 13 12 15 14
 4 1 2 3 5 9 6 7 11 8 10 0 13 12 15 14
 4 1 2 3 5 9 6 7 11 8 0 10 13 12 15 14
 4 1 2 3 5 9 6 7 11 0 8 10 13 12 15 14
 4 1 2 3 5 0 6 7 11 9 8 10 13 12 15 14
 4 1 2 3 0 5 6 7 11 9 8 10 13 12 15 14
 4 1 2 3 11 5 6 7 0 9 8 10 13 12 15 14
 4 1 2 3 11 5 6 7 9 0 8 10 13 12 15 14
 4 1 2 3 11 5 6 7 9 8 0 10 13 12 15 14
 4 1 2 3 11 5 0 7 9 8 6 10 13 12 15 14
 4 1 2 3 11 0 5 7 9 8 6 10 13 12 15 14
 4 1 2 3 0 11 5 7 9 8 6 10 13 12 15 14
 4 1 2 3 9 11 5 7 0 8 6 10 13 12 15 14
 4 1 2 3 9 11 5 7 8 0 6 10 13 12 15 14
 4 1 2 3 9 0 5 7 8 11 6 10 13 12 15 14
 4 1 2 3 9 5 0 7 8 11 6 10 13 12 15 14
 4 1 2 3 9 5 6 7 8 11 0 10 13 12 15 14
 4 1 2 3 9 5 6 7 8 0 11 10 13 12 15 14
 4 1 2 3 9 5 6 7 8 12 11 10 13 0 15 14
 4 1 2 3 9 5 6 7 8 12 11 10 0 13 15 14
 4 1 2 3 9 5 6 7 0 12 11 10 8 13 15 14
 4 1 2 3 0 5 6 7 9 12 11 10 8 13 15 14
 4 1 2 3 5 0 6 7 9 12 11 10 8 13 15 14
 4 1 2 3 5 12 6 7 9 0 11 10 8 13 15 14
 4 1 2 3 5 12 6 7 0 9 11 10 8 13 15 14
 4 1 2 3 5 12 6 7 8 9 11 10 0 13 15 14
 4 1 2 3 5 12 6 7 8 9 11 10 13 0 15 14
 4 1 2 3 5 12 6 7 8 0 11 10 13 9 15 14
 4 1 2 3 5 0 6 7 8 12 11 10 13 9 15 14
 4 1 2 3 0 5 6 7 8 12 11 10 13 9 15 14
 4 1 2 3 8 5 6 7 0 12 11 10 13 9 15 14
 4 1 2 3 8 5 6 7 12 0 11 10 13 9 15 14
 4 1 2 3 8 5 6 7 12 9 11 10 13 0 15 14
 4 1 2 3 8 5 6 7 12 9 11 10 13 15 0 14
 4 1 2 3 8 5 6 7 12 9 11 10 13 15 14 0
 4 1 2 3 8 5 6 7 12 9 11 0 13 15 14 10
 4 1 2 3 8 5 6 7 12 9 0 11 13 15 14 10
 4 1 2 3 8 5 6 7 12 9 14 11 13 15 0 10
 4 1 2 3 8 5 6 7 12 9 14 11 13 15 10 0
 4 1 2 3 8 5 6 7 12 9 14 0 13 15 10 11
 4 1 2 3 8 5 6 7 12 9 0 14 13 15 10 11
 4 1 2 3 8 5 6 7 12 9 10 14 13 15 0 11
 4 1 2 3 8 5 6 7 12 9 10 14 13 0 15 11
 4 1 2 3 8 5 6 7 12 9 10 14 0 13 15 11
 4 1 2 3 8 5 6 7 0 9 10 14 12 13 15 11
 4 1 2 3 8 5 6 7 9 0 10 14 12 13 15 11
 4 1 2 3 8 5 6 7 9 10 0 14 12 13 15 11
 4 1 2 3 8 5 6 7 9 10 14 0 12 13 15 11
 4 1 2 3 8 5 6 7 9 10 14 11 12 13 15 0
 4 1 2 3 8 5 6 7 9 10 14 11 12 13 0 15
 4 1 2 3 8 5 6 7 9 10 0 11 12 13 14 15
 4 1 2 3 8 5 6 7 9 0 10 11 12 13 14 15
 4 1 2 3 8 5 6 7 0 9 10 11 12 13 14 15
 4 1 2 3 0 5 6 7 8 9 10 11 12 13 14 15
 0 1 2 3 4 5 6 7 8 9 10 11 12 13 14 15
